{
    // Comment
    "Get SObject FieldSet Info": {
		"prefix": "fieldset",
		"body": [
            "List<Schema.FieldSetMember> fields = SObjectType.${1:SObjectName}.FieldSets.${2:FieldsSetName}.getFields();",
            "for (Schema.FieldSetMember field : fields) {",
            "    System.debug(loggingLevel.Error, '*** field: ' + field);",
            "}"
		],
		"description": "Get SObject FieldSet Info"
    },

    // Comment
    "Execute Batch": {
        "prefix": "batch",
        "body": [
            "private final Integer BATCH_SIZE = 100;",
            "${1:BatchClass} bat = new ${1:BatchClass}();",
            "Database.executeBatch(bat, BATCH_SIZE);"
        ],
        "description": "Execute Batch"
    },

    // Comment
    "Header Document Coment": {
        "prefix": [
            "header","doc"
        ],
        "body": [
            "/**",
            "* @author Masashi.Nakayama (masashi.nakayama@sunsons.jp)",
            "* @version ${1:1.0}",
            "* @description ${2:Description of the Metadata File}",
            "* ",
            "* $CURRENT_YEAR-$CURRENT_MONTH-$CURRENT_DATE : Masashi.Nakayama - Original",
            "**/",
        ],
        "description": "Header Document Coment"
    },

    // Comment
    "Quick System Debug": {
        "prefix": "d",
        "body": [
            "System.debug(loggingLevel.Info, '*** ${1:DebugTarget}: ' + ${1:DebugTarget});"
        ],
        "description": "Quick System Debug"
    },

    // Comment
    "Quick Set Initialize": {
        "prefix": "s",
        "body": [
            "Set<String> sampleSet = new Set<String> {",
            "    'value1',",
            "    'value2',",
            "    'value3'",
            "};",
        ],
        "description": "Quick Set Initialize"
    },
    
    // Comment
    "Quick List Initialize": {
        "prefix": "l",
        "body": [
            "List<String> sampleLst = new List<String> {",
            "    'value1',",
            "    'value2',",
            "    'value3'",
            "};",
        ],
        "description": "Quick List Initialize"
    },
    
    // Comment
    "Quick List Object Initialize": {
        "prefix": "lo",
        "body": [
            "List<${1:SObject}> ${2:name} = new List<${1:SObject}>();"
        ],
        "description": "Quick List Object Initialize"
    },

    // Comment
    "Quick Map Variable Initialize": {
        "prefix": [
            "m"
        ],
        "body": [
            "Map<String, String> sampleMap = new Map<String, String>{",
            "    'key1' => 'value1',",
            "    'key2' => 'value2',",
            "    'key3' => 'value3'",
            "};",
        ],
        "description": "Quick Map Variable Initialize"
    },

    // Comment
    "Quick Map Variable Object Initialize": {
        "prefix": [
            "mo"
        ],
        "body": [
            "Map<Id, SObject> accountMap = new Map<Id, SObject> (",
            "    [SELECT ID, Name FROM Account]",
            ");",
        ],
        "description": "Quick Map Variable Object Initialize"
    },




    // Comment
    "SObject Fields Info": {
        "prefix": ["sof", "field"],
        "body": [
            "// DescribeFieldResult",
            "// https://developer.salesforce.com/docs/atlas.ja-jp.apexcode.meta/apexcode/apex_methods_system_fields_describe.htm",
            "Schema.SObjectType sobjType = Schema.getGlobalDescribe().get('${1:SObject Name : Account}');",
            "Schema.DescribeSObjectResult desSobjResult = sobjType.getDescribe();",
            "Map<String, Schema.SObjectField> fieldMap = desSobjResult.fields.getMap();",
            "",
            "for (String k : fieldMap.keySet()) {",
            "    Schema.DescribeFieldResult r = fieldMap.get(k).getDescribe();",
            "    System.debug(loggingLevel.Info, '*** ' +  r.label + ' - ' + r.name + ' - ' + r.type + ' - ' + r.referenceTo);",
            "}"
        ],
        "description": "SObject Fields Info"
    },

    // Comment
    "Get SOQL All Fields Data": {
        "prefix": [
            "soql"
        ],
        "body": [
            "List<${1:SObject Name : Account}> ${2:Variable Name : acc}Lst = Database.query(",
            "    'SELECT ' + String.join(new List<String>(",
            "        ${1:SObject Name}.SObjecttype.getDescribe().fields.getMap().keySet()), ', ') + ",
            "    '  FROM ${1:SObject Name} ' + ",
            "    ' LIMIT 10 '",
            ");",
            "for (${1:SObject Name} ${2:Variable Name} : ${2:Variable Name}Lst) {",
            "    System.debug(loggingLevel.Info, '*** ${2:Variable Name}: ' + ${2:Variable Name}.Id + ' - ' + ${2:Variable Name}.Name);",
            "}",
        ],
        "description": "Get SOQL All Fields Data"
    },

    // Comment
    "Get SObject RecordType List": {
        "prefix": [
            "record list"
        ],
        "body": [
            "for(RecordTypeInfo r: Schema.getGlobalDescribe().get('${1:Account}').getDescribe().getRecordTypeInfos()) {",
            "    System.debug(loggingLevel.Info, '*** ReportTypeInfo : ' + r.getRecordTypeId() + ' - ' + r.getName());",
            "}",
        ],
        "description": "Get SObject Record Type"
    },

    // Comment
    "Get SObject RecordType Info Get": {
        "prefix": [
            "record get"
        ],
        "body": [
            "String recordTypeId = Schema.getGlobalDescribe().get('${1:Account}').getDescribe().getRecordTypeInfosByName().get('${2:マスタ}').getRecordTypeId();",
            "System.debug('recordTypeId - ' + recordTypeId);",
            "String recordTypeName = Schema.getGlobalDescribe().get('${1:Account}').getDescribe().getRecordTypeInfosById().get(recordTypeId).getName();",
            "System.debug('recordTypeName - ' + recordTypeName);",
        ],
        "description": "Get SObject RecordType Info Get"
    },



    // Comment
    "Quick BatchClass Template": {
        "prefix": [
            "batch template"
        ],
        "body": [
            "global class ${1:ApiName} implements Database.Batchable<sObject> ${2:Database.Stateful} {",
            "",
            "    String query;",
            "",
            "    global ${1:ApiName}() {",
            "        query = ' SELECT ID, Name FROM Account LIMIT 10' ",
            "    }",
            "",
            "    global Database.QueryLocator start(Database.BatchableContext BC) {",
            "        return Database.getQueryLocator(query);",
            "    }",
            "",
            "    global void execute(Database.BatchableContext BC, List<sObject> scope) {",
            "",
            "    }",
            "",
            "    global void finish(Database.BatchableContext BC) {",
            "",
            "    }",
            "",
            "}",
        ],
        "description": "Quick Batch Template"
    },

    // Comment
    "Quick TestClass Template": {
    "prefix": [
        "test template"
    ],
    "body": [
        "@isTest",
        "private class ${1:ApiName} {",
        "",
        "    @TestSetup",
        "    private static void makeData(){",
        "",
        "        List<Account> accs = new List<Account>();",
        "        accs.add(new Account(",
        "            Name = 'テスト太郎'",
        "        ));",
        "        insert accs;",
        "    }",
        "",
        "    @isTest",
        "    private static void test_method() {",
        "",
        "        System.debug(loggingLevel.Info, '--- test_method START');",
        "",
        "        List<Account> accs = [SELECT ID, Name FROM Account WHERE Name = 'テスト太郎'];",
        "        System.debug(loggingLevel.Info, '*** accs: ' + accs);",
        "",
        "        System.debug(loggingLevel.Info, '--- test_method END');",
        "    }",
        "}",
    ],
    "description": "Quick Test Template"
},


}